[
  {
    "element-6066-11e4-a52e-4f735466cecf": "bffa61d0-1c5e-48c7-a52b-2586fe803b16"
  },
  {
    "element-6066-11e4-a52e-4f735466cecf": "ae373d0b-0d21-4675-9e37-1438a0953b5c"
  },
  {
    "element-6066-11e4-a52e-4f735466cecf": "e7c054ba-2459-46a8-a25f-5ba804e85b41"
  },
  {
    "element-6066-11e4-a52e-4f735466cecf": "de1a2b5e-f4a7-4b99-bba6-6f3053031e97"
  },
  {
    "element-6066-11e4-a52e-4f735466cecf": "13623a22-d692-4bea-a023-26ad5d031f35"
  },
  {
    "element-6066-11e4-a52e-4f735466cecf": "e2318df4-7c8e-4fda-a500-3404c5437d79"
  },
  {
    "element-6066-11e4-a52e-4f735466cecf": "1c3c78c0-378c-4a66-b461-ec69ee272de2"
  },
  {
    "element-6066-11e4-a52e-4f735466cecf": "c7cee4f3-8513-4ddc-916a-d41d0fd1162e"
  },
  {
    "element-6066-11e4-a52e-4f735466cecf": "be370e8c-7b58-4840-8178-3ef2862dce7c"
  },
  {
    "element-6066-11e4-a52e-4f735466cecf": "01ff7f91-32f1-4951-84b4-b520dcc396de"
  },
  {
    "element-6066-11e4-a52e-4f735466cecf": "195b6d76-9f76-4280-a6c7-37a5d876c8d0"
  }
]