[
  {
    "element-6066-11e4-a52e-4f735466cecf": "f7b9987f-40b0-4b3d-ad42-53bf1dc0f218"
  },
  {
    "element-6066-11e4-a52e-4f735466cecf": "747d0ba8-f220-4550-a3b6-ada5275d527f"
  },
  {
    "element-6066-11e4-a52e-4f735466cecf": "05f4e055-4002-48d9-a53a-af37da7d1668"
  },
  {
    "element-6066-11e4-a52e-4f735466cecf": "723c5451-8ebe-4aa4-9c15-29a8c7f91614"
  },
  {
    "element-6066-11e4-a52e-4f735466cecf": "ef202477-329a-4907-be17-69727a807d3f"
  },
  {
    "element-6066-11e4-a52e-4f735466cecf": "13da89bd-7786-48db-9344-ba5848c4da81"
  },
  {
    "element-6066-11e4-a52e-4f735466cecf": "1208ae51-8d04-46a7-9897-0eac012d2431"
  },
  {
    "element-6066-11e4-a52e-4f735466cecf": "abe9d095-8cae-4fdd-8108-b049e4d841ed"
  },
  {
    "element-6066-11e4-a52e-4f735466cecf": "9ac23ee8-80cb-423d-8b6b-8fcd0e6b08b6"
  },
  {
    "element-6066-11e4-a52e-4f735466cecf": "486ead93-8d58-4f9a-9888-45d528eaba9e"
  },
  {
    "element-6066-11e4-a52e-4f735466cecf": "ffbaed49-2786-400a-b47a-087dffde22e0"
  }
]