[
  {
    "element-6066-11e4-a52e-4f735466cecf": "f9f1ecda-88b5-43f1-b5b5-3bad47de1f82"
  },
  {
    "element-6066-11e4-a52e-4f735466cecf": "80b5db0c-ff19-4f0b-bc87-dd9c20433f6f"
  },
  {
    "element-6066-11e4-a52e-4f735466cecf": "baa50bf9-ea9c-4824-b5ed-f5d651d5f650"
  },
  {
    "element-6066-11e4-a52e-4f735466cecf": "2405f9c5-51d9-4c95-b862-6d6961857e15"
  },
  {
    "element-6066-11e4-a52e-4f735466cecf": "f283535b-9800-4455-96c7-5ec4096e9f78"
  },
  {
    "element-6066-11e4-a52e-4f735466cecf": "429a8dbb-fb43-4ddf-99f4-1599fc9dec06"
  },
  {
    "element-6066-11e4-a52e-4f735466cecf": "0386c7f8-93df-468c-972f-60408f6c4c01"
  },
  {
    "element-6066-11e4-a52e-4f735466cecf": "ed98d796-a414-4241-83e3-66ffa92ec88d"
  },
  {
    "element-6066-11e4-a52e-4f735466cecf": "a0e1a252-dd7f-4844-9e33-091c764ddd5b"
  },
  {
    "element-6066-11e4-a52e-4f735466cecf": "2ca8d6e1-d18e-405c-8779-a3888ce194df"
  },
  {
    "element-6066-11e4-a52e-4f735466cecf": "14167796-ce6b-4882-bcab-fac9e2b0e32f"
  }
]