[
  {
    "element-6066-11e4-a52e-4f735466cecf": "4c5fc223-e0d5-4887-a442-b9ddc5b36049"
  },
  {
    "element-6066-11e4-a52e-4f735466cecf": "efcbadfb-647a-4fb1-b9df-9c3eb0acf864"
  },
  {
    "element-6066-11e4-a52e-4f735466cecf": "16fac929-0e8f-4d32-8858-986407db47cd"
  },
  {
    "element-6066-11e4-a52e-4f735466cecf": "647bcf0e-01e0-405e-b43a-282fb70825c3"
  },
  {
    "element-6066-11e4-a52e-4f735466cecf": "863c051e-e596-441d-9e33-e744d273f7a8"
  },
  {
    "element-6066-11e4-a52e-4f735466cecf": "fb30ae49-9d07-4e7e-8577-296f84b42922"
  },
  {
    "element-6066-11e4-a52e-4f735466cecf": "9dd54f3a-e02b-4f8a-b08c-7b063c0764eb"
  },
  {
    "element-6066-11e4-a52e-4f735466cecf": "f9969171-9d34-43b9-baab-ebfde9a71d6b"
  },
  {
    "element-6066-11e4-a52e-4f735466cecf": "adced47a-575b-4c72-9beb-c3c1fde4f8ee"
  },
  {
    "element-6066-11e4-a52e-4f735466cecf": "382f7009-047f-451e-aa1c-76d6b2e3ea7b"
  },
  {
    "element-6066-11e4-a52e-4f735466cecf": "bfc11266-6792-4668-aeda-b12b4681cc2a"
  },
  {
    "element-6066-11e4-a52e-4f735466cecf": "2fa13dca-1d0a-44e1-97e8-a99f8ee9f5af"
  }
]