[
  {
    "element-6066-11e4-a52e-4f735466cecf": "bf1bc6ab-adc0-4f54-bf26-a8ca3f12fb39"
  },
  {
    "element-6066-11e4-a52e-4f735466cecf": "c55991d8-8594-4891-a911-58a07fd28e37"
  },
  {
    "element-6066-11e4-a52e-4f735466cecf": "93896665-63d7-44b3-a313-acdb248043c6"
  },
  {
    "element-6066-11e4-a52e-4f735466cecf": "da50000b-560d-4354-957c-ba51c72d3d38"
  },
  {
    "element-6066-11e4-a52e-4f735466cecf": "b7d7bc12-f20d-4113-81ab-5a14f76209f1"
  },
  {
    "element-6066-11e4-a52e-4f735466cecf": "3135e9d8-5d1e-424b-a23b-27f58d2db8e5"
  },
  {
    "element-6066-11e4-a52e-4f735466cecf": "acf2ff05-5347-4c7f-8c0d-0bf7ee4d824d"
  },
  {
    "element-6066-11e4-a52e-4f735466cecf": "3250ec6e-f5b1-431b-b05e-e558fa1c70fb"
  },
  {
    "element-6066-11e4-a52e-4f735466cecf": "63395b3b-77db-4e3e-bf37-4b9b621ad66a"
  },
  {
    "element-6066-11e4-a52e-4f735466cecf": "87b8650f-d95d-4ab1-8606-f24dd8b3178b"
  },
  {
    "element-6066-11e4-a52e-4f735466cecf": "3cdb05de-8c04-4985-bb86-c6519a7ffdf0"
  },
  {
    "element-6066-11e4-a52e-4f735466cecf": "5dd6aced-3bd1-4e67-81b5-de623d97b2da"
  }
]