{
  "actions": [
    {
      "type": "pointer",
      "id": "finger1",
      "parameters": {
        "pointerType": "mouse"
      },
      "actions": [
        {
          "type": "pointerMove",
          "duration": 0,
          "x": 1127,
          "y": 524
        },
        {
          "type": "pointerDown",
          "button": 0
        },
        {
          "type": "pause",
          "duration": 10
        },
        {
          "type": "pointerMove",
          "duration": 10,
          "origin": "pointer",
          "x": -74,
          "y": 0
        },
        {
          "type": "pointerUp",
          "button": 0
        }
      ]
    }
  ]
}