[
  {
    "element-6066-11e4-a52e-4f735466cecf": "b6427bd1-3556-4784-856d-6b92195543db"
  },
  {
    "element-6066-11e4-a52e-4f735466cecf": "fcb2476f-7a47-4fee-985a-04fe95c8ee96"
  },
  {
    "element-6066-11e4-a52e-4f735466cecf": "38b8aa53-e033-473d-8d89-0b15ee6484ac"
  },
  {
    "element-6066-11e4-a52e-4f735466cecf": "06123863-ca0d-4c6a-bbf9-abdfde9fa64a"
  },
  {
    "element-6066-11e4-a52e-4f735466cecf": "c745d815-3375-45c3-a209-40af1a5ce918"
  },
  {
    "element-6066-11e4-a52e-4f735466cecf": "71dc4fe9-8da8-42ce-91d0-3ffa1f378bd9"
  },
  {
    "element-6066-11e4-a52e-4f735466cecf": "3f24e6d5-ad50-4a33-b26a-fad10d0e5473"
  }
]