[
  {
    "element-6066-11e4-a52e-4f735466cecf": "c7796737-ed48-47ad-8b01-5fc7dddf588b"
  },
  {
    "element-6066-11e4-a52e-4f735466cecf": "c4c00165-151b-411d-8f3e-bfa738f5faf2"
  },
  {
    "element-6066-11e4-a52e-4f735466cecf": "903b0373-8439-4719-a7c8-c9eb806eab5f"
  },
  {
    "element-6066-11e4-a52e-4f735466cecf": "7c19da60-458a-427b-ad51-cd37cfdf732b"
  },
  {
    "element-6066-11e4-a52e-4f735466cecf": "20d3e561-2386-4d10-9e4b-57b8257b612c"
  },
  {
    "element-6066-11e4-a52e-4f735466cecf": "bd96f78e-8e82-4084-ba5b-98d6f9a4cf83"
  },
  {
    "element-6066-11e4-a52e-4f735466cecf": "4eb0c649-6e5d-43dd-9355-595b45ea8860"
  }
]