[
  {
    "element-6066-11e4-a52e-4f735466cecf": "8befd5d6-2785-4c72-a63d-c1ba18bb60e5"
  },
  {
    "element-6066-11e4-a52e-4f735466cecf": "de5aede7-0c62-46fb-9671-1a89acfc5909"
  },
  {
    "element-6066-11e4-a52e-4f735466cecf": "5b6064f2-c1ce-43a9-a28e-a8064c3efe6c"
  },
  {
    "element-6066-11e4-a52e-4f735466cecf": "d8386f3e-a7ec-4ee3-b3e5-125dd36c9498"
  },
  {
    "element-6066-11e4-a52e-4f735466cecf": "254d7c0d-ebbe-42f7-af0c-73762ec2ede6"
  },
  {
    "element-6066-11e4-a52e-4f735466cecf": "a2c4b0ab-8208-45c6-82c9-a2d929bb591a"
  },
  {
    "element-6066-11e4-a52e-4f735466cecf": "4e3651c0-0ded-44f4-ab3b-30fc3435163a"
  },
  {
    "element-6066-11e4-a52e-4f735466cecf": "d5401946-c6fe-4829-9f03-b509bb6ee92f"
  },
  {
    "element-6066-11e4-a52e-4f735466cecf": "275659fe-b650-45ca-93f6-9d7099e85c9e"
  },
  {
    "element-6066-11e4-a52e-4f735466cecf": "3584de76-f073-4579-96fe-3d13235944bb"
  },
  {
    "element-6066-11e4-a52e-4f735466cecf": "be842b26-6f53-4727-ba25-2f404fb471f8"
  }
]