[
  {
    "element-6066-11e4-a52e-4f735466cecf": "aa680e0b-fa61-4ac5-b7c1-18233589623e"
  },
  {
    "element-6066-11e4-a52e-4f735466cecf": "0f18ca40-2c30-415c-9d48-e983d950ed14"
  },
  {
    "element-6066-11e4-a52e-4f735466cecf": "61cd1a6b-74a0-4e78-aca2-247c410fbeae"
  },
  {
    "element-6066-11e4-a52e-4f735466cecf": "f481102e-d998-4db3-a190-2a6ff9352471"
  },
  {
    "element-6066-11e4-a52e-4f735466cecf": "b2a134f6-53cc-445a-9a60-84f7088f4a61"
  },
  {
    "element-6066-11e4-a52e-4f735466cecf": "63f62780-bfdd-4de1-88fc-2e51abd5ff9b"
  },
  {
    "element-6066-11e4-a52e-4f735466cecf": "b89e50c6-e419-4bcc-9ef4-3b9ecafbec96"
  }
]