[
  {
    "element-6066-11e4-a52e-4f735466cecf": "c4b3dc4d-c113-4c22-9483-5240ca746a04"
  },
  {
    "element-6066-11e4-a52e-4f735466cecf": "b4eab9b6-6de9-46bb-82eb-23116c75d6a9"
  },
  {
    "element-6066-11e4-a52e-4f735466cecf": "e96679a3-03e0-46f6-af36-c7080aa2affc"
  },
  {
    "element-6066-11e4-a52e-4f735466cecf": "5acdd82d-4862-4d3f-a72b-000bf870378f"
  },
  {
    "element-6066-11e4-a52e-4f735466cecf": "87ce02e0-99c8-4f7f-ada0-cb7ac99bf84e"
  },
  {
    "element-6066-11e4-a52e-4f735466cecf": "958c8029-de82-4ba1-8412-7138630bc6b7"
  },
  {
    "element-6066-11e4-a52e-4f735466cecf": "45a39eb3-2b3b-4a04-a52f-9cb5bfb5c01c"
  },
  {
    "element-6066-11e4-a52e-4f735466cecf": "11834f35-ffd9-40a2-8c26-03606d4d9499"
  },
  {
    "element-6066-11e4-a52e-4f735466cecf": "4c0a7027-1ed4-4a60-ba9f-80775bbf7163"
  },
  {
    "element-6066-11e4-a52e-4f735466cecf": "03169832-1054-4232-8b64-8b4683d89cf0"
  },
  {
    "element-6066-11e4-a52e-4f735466cecf": "ba4fe119-db06-4b6b-9189-be63a25acb18"
  },
  {
    "element-6066-11e4-a52e-4f735466cecf": "43ae0994-1eda-4c9c-ab1d-938995a6b0f4"
  }
]