[
  {
    "element-6066-11e4-a52e-4f735466cecf": "1bc94722-cfb0-4c32-bb0a-bb66c35d4007"
  },
  {
    "element-6066-11e4-a52e-4f735466cecf": "a972efd2-6e3f-4444-a849-9c03a1cbcef9"
  },
  {
    "element-6066-11e4-a52e-4f735466cecf": "813da0e5-35f5-428f-8568-79ae4be778c8"
  },
  {
    "element-6066-11e4-a52e-4f735466cecf": "decab39b-93ac-4ccc-bce2-3c733e7a54bd"
  },
  {
    "element-6066-11e4-a52e-4f735466cecf": "825d07ad-c368-4d91-aeb7-f35cb4586cca"
  },
  {
    "element-6066-11e4-a52e-4f735466cecf": "2217e6d6-9562-49e2-a4e8-349db1cc2ce0"
  },
  {
    "element-6066-11e4-a52e-4f735466cecf": "71a57d0c-e2b8-490b-b91c-86f87edfdbda"
  },
  {
    "element-6066-11e4-a52e-4f735466cecf": "f6165891-0fcf-425b-b786-2ae763c5865e"
  },
  {
    "element-6066-11e4-a52e-4f735466cecf": "80c923d8-6be9-4d67-972d-b4b3344db643"
  },
  {
    "element-6066-11e4-a52e-4f735466cecf": "40f82ec8-4a5b-4abd-96f9-01365fbf61ad"
  },
  {
    "element-6066-11e4-a52e-4f735466cecf": "30bc31f8-b1f4-4658-a188-9d17df2827c7"
  }
]