[
  {
    "element-6066-11e4-a52e-4f735466cecf": "10a4b03f-27a2-4805-b224-a760b3833082"
  },
  {
    "element-6066-11e4-a52e-4f735466cecf": "1441d382-fdf1-4c31-b67b-68c1e41572c7"
  },
  {
    "element-6066-11e4-a52e-4f735466cecf": "9e962a52-3ee3-49e9-8928-9fbbadc7d20b"
  },
  {
    "element-6066-11e4-a52e-4f735466cecf": "8f0cb303-ac4c-4ac5-9394-8e9308bc9fc2"
  },
  {
    "element-6066-11e4-a52e-4f735466cecf": "da62b0c5-e3a4-4d5c-850a-5678d156cf8b"
  },
  {
    "element-6066-11e4-a52e-4f735466cecf": "23f28000-f210-44f7-996d-3e1b9798afac"
  },
  {
    "element-6066-11e4-a52e-4f735466cecf": "677368ef-f41c-4992-a91c-df9738733f8f"
  },
  {
    "element-6066-11e4-a52e-4f735466cecf": "fe92e145-6766-49b4-8446-d5614559308a"
  },
  {
    "element-6066-11e4-a52e-4f735466cecf": "bd8ddf7b-d371-4a04-ad59-774b63736243"
  },
  {
    "element-6066-11e4-a52e-4f735466cecf": "c9d6aed3-dd70-4e92-9e90-2f8b2babddea"
  },
  {
    "element-6066-11e4-a52e-4f735466cecf": "fd5f62ae-dda5-4de9-b2d7-3d16d63dde67"
  }
]