[
  {
    "element-6066-11e4-a52e-4f735466cecf": "1b96d4e5-3567-4b1d-93f1-ca5f0b553163"
  },
  {
    "element-6066-11e4-a52e-4f735466cecf": "648a0367-1175-4244-b20d-7b91560706ab"
  },
  {
    "element-6066-11e4-a52e-4f735466cecf": "2643fcc8-a586-4628-97aa-5906a3f71d5f"
  },
  {
    "element-6066-11e4-a52e-4f735466cecf": "ae4e7efc-3af5-42ab-be44-3a4354141fd9"
  },
  {
    "element-6066-11e4-a52e-4f735466cecf": "b1fa592e-781f-4fc1-9c62-c9f06bd5d825"
  },
  {
    "element-6066-11e4-a52e-4f735466cecf": "035dc0d0-f2de-4f27-b372-745b4a918902"
  },
  {
    "element-6066-11e4-a52e-4f735466cecf": "d83f4cb7-9d0e-4ec3-b4a5-184961dac9a9"
  },
  {
    "element-6066-11e4-a52e-4f735466cecf": "1e4a3d31-2ba3-46e2-bd79-5419c666b505"
  },
  {
    "element-6066-11e4-a52e-4f735466cecf": "ee88d3d6-9501-4acb-96c2-a17336e39f6e"
  },
  {
    "element-6066-11e4-a52e-4f735466cecf": "5e31cae3-8936-4536-9f2b-13c678e090bb"
  },
  {
    "element-6066-11e4-a52e-4f735466cecf": "21bf5f9e-f09f-464d-9cb3-1b94704d0037"
  },
  {
    "element-6066-11e4-a52e-4f735466cecf": "40669cd1-0e14-4b0d-8916-f997e5a9cc21"
  }
]