[ {
  "uid" : "d0807f74e8bdce08",
  "name" : "Then results of related cars with a 'EVOQUE Land Rover' mark are displayed",
  "time" : {
    "start" : 1609832866299,
    "stop" : 1609832866326,
    "duration" : 27
  },
  "status" : "passed",
  "severity" : "normal"
}, {
  "uid" : "1c3966e496e55d7f",
  "name" : "Then results of related cars with MIN value of Term - 24 months are displayed",
  "time" : {
    "start" : 1609832882196,
    "stop" : 1609832882219,
    "duration" : 23
  },
  "status" : "passed",
  "severity" : "normal"
}, {
  "uid" : "a1bc70f7a2ff1aa1",
  "name" : "Hook",
  "time" : {
    "start" : 1609832899138,
    "stop" : 1609832899138,
    "duration" : 0
  },
  "status" : "passed",
  "severity" : "normal"
}, {
  "uid" : "5bffd294b1e0a4bc",
  "name" : "Then results of related cars with MIN price are displayed",
  "time" : {
    "start" : 1609832876438,
    "stop" : 1609832876486,
    "duration" : 48
  },
  "status" : "passed",
  "severity" : "normal"
}, {
  "uid" : "f73b6bf69bdd54f",
  "name" : "Then no results of related cars with 'Hybrid' fuel type are displayed",
  "time" : {
    "start" : 1609832917223,
    "stop" : 1609832917243,
    "duration" : 20
  },
  "status" : "passed",
  "severity" : "normal"
}, {
  "uid" : "f4e99d353b14843b",
  "name" : "Then results of related cars with AVG value of Term - 48 months are displayed",
  "time" : {
    "start" : 1609832893331,
    "stop" : 1609832893354,
    "duration" : 23
  },
  "status" : "passed",
  "severity" : "normal"
}, {
  "uid" : "269c2e82affb658",
  "name" : "Then results of related cars with a 'No stress plan' are displayed",
  "time" : {
    "start" : 1609832848011,
    "stop" : 1609832848127,
    "duration" : 116
  },
  "status" : "passed",
  "severity" : "normal"
}, {
  "uid" : "ec8788f7e26a0120",
  "name" : "Hook",
  "time" : {
    "start" : 1609832876486,
    "stop" : 1609832876486,
    "duration" : 0
  },
  "status" : "passed",
  "severity" : "normal"
}, {
  "uid" : "8d5e54e9d1d63397",
  "name" : "Then results of related cars sums are displayed",
  "time" : {
    "start" : 1609832853070,
    "stop" : 1609832853097,
    "duration" : 27
  },
  "status" : "passed",
  "severity" : "normal"
}, {
  "uid" : "dafbb65a80444327",
  "name" : "Given the browser is at Our Vehicles page",
  "time" : {
    "start" : 1609832866333,
    "stop" : 1609832868106,
    "duration" : 1773
  },
  "status" : "passed",
  "severity" : "normal"
}, {
  "uid" : "bb9734e76ed119d",
  "name" : "When the user search MAX value of Term - 60 months and Mileage",
  "time" : {
    "start" : 1609832896597,
    "stop" : 1609832899112,
    "duration" : 2515
  },
  "status" : "passed",
  "severity" : "normal"
}, {
  "uid" : "358bf3116baa5f7a",
  "name" : "Hook",
  "time" : {
    "start" : 1609832905907,
    "stop" : 1609832905907,
    "duration" : 0
  },
  "status" : "passed",
  "severity" : "normal"
}, {
  "uid" : "dc0cd51910dc883d",
  "name" : "Hook",
  "time" : {
    "start" : 1609832866326,
    "stop" : 1609832866327,
    "duration" : 1
  },
  "status" : "passed",
  "severity" : "normal"
}, {
  "uid" : "dfeaec279789331e",
  "name" : "When the user search AVG value of Term - 48 months and Mileage",
  "time" : {
    "start" : 1609832889718,
    "stop" : 1609832893331,
    "duration" : 3613
  },
  "status" : "passed",
  "severity" : "normal"
}, {
  "uid" : "993ea8268aef7864",
  "name" : "Given the browser is at Our Vehicles page",
  "time" : {
    "start" : 1609832848135,
    "stop" : 1609832849884,
    "duration" : 1749
  },
  "status" : "passed",
  "severity" : "normal"
}, {
  "uid" : "30639ac92e2e6aa1",
  "name" : "When the user search MIN value of Term and Mileage",
  "time" : {
    "start" : 1609832878322,
    "stop" : 1609832882196,
    "duration" : 3874
  },
  "status" : "passed",
  "severity" : "normal"
}, {
  "uid" : "ca7ded3f3e5354fa",
  "name" : "When the user search for 'Best Deals'",
  "time" : {
    "start" : 1609832836115,
    "stop" : 1609832841875,
    "duration" : 5760
  },
  "status" : "passed",
  "severity" : "normal"
}, {
  "uid" : "4a7fd8f76818cc01",
  "name" : "When the user search for 'Electric'",
  "time" : {
    "start" : 1609832902657,
    "stop" : 1609832905784,
    "duration" : 3127
  },
  "status" : "passed",
  "severity" : "normal"
}, {
  "uid" : "b09caf5b64f71d6",
  "name" : "Hook",
  "time" : {
    "start" : 1609832882219,
    "stop" : 1609832882219,
    "duration" : 0
  },
  "status" : "passed",
  "severity" : "normal"
}, {
  "uid" : "e9bb31f94b6a1923",
  "name" : "Then results of related cars with 'Best Deals' mark are displayed",
  "time" : {
    "start" : 1609832841875,
    "stop" : 1609832842047,
    "duration" : 172
  },
  "status" : "passed",
  "severity" : "normal"
}, {
  "uid" : "154451f49dccea62",
  "name" : "Then results of related cars with 'Electric' fuel type are displayed",
  "time" : {
    "start" : 1609832905784,
    "stop" : 1609832905907,
    "duration" : 123
  },
  "status" : "passed",
  "severity" : "normal"
}, {
  "uid" : "ca9124d255ed0a64",
  "name" : "Hook",
  "time" : {
    "start" : 1609832871419,
    "stop" : 1609832871419,
    "duration" : 0
  },
  "status" : "passed",
  "severity" : "normal"
}, {
  "uid" : "92437df14d1f0be8",
  "name" : "Then results of related cars with MAX value of Term - 60 months are displayed",
  "time" : {
    "start" : 1609832899112,
    "stop" : 1609832899138,
    "duration" : 26
  },
  "status" : "passed",
  "severity" : "normal"
}, {
  "uid" : "a6798079cdb72ac3",
  "name" : "Hook",
  "time" : {
    "start" : 1609832859801,
    "stop" : 1609832859801,
    "duration" : 0
  },
  "status" : "passed",
  "severity" : "normal"
}, {
  "uid" : "60f31701f068418c",
  "name" : "Hook",
  "time" : {
    "start" : 1609832893354,
    "stop" : 1609832893354,
    "duration" : 0
  },
  "status" : "passed",
  "severity" : "normal"
}, {
  "uid" : "ac73e1d804c64e64",
  "name" : "When the user search for 'EVOQUE Land Rover'",
  "time" : {
    "start" : 1609832861522,
    "stop" : 1609832866299,
    "duration" : 4777
  },
  "status" : "passed",
  "severity" : "normal"
}, {
  "uid" : "ab3975e278756709",
  "name" : "Given the browser is at Our Vehicles page",
  "time" : {
    "start" : 1609832882225,
    "stop" : 1609832884043,
    "duration" : 1818
  },
  "status" : "passed",
  "severity" : "normal"
}, {
  "uid" : "797fa65aa4f44847",
  "name" : "When the user search a MAX price of cars",
  "time" : {
    "start" : 1609832868106,
    "stop" : 1609832871394,
    "duration" : 3288
  },
  "status" : "passed",
  "severity" : "normal"
}, {
  "uid" : "422b4c361ae260b7",
  "name" : "Given the browser is at Our Vehicles page",
  "time" : {
    "start" : 1609832842063,
    "stop" : 1609832845172,
    "duration" : 3109
  },
  "status" : "passed",
  "severity" : "normal"
}, {
  "uid" : "e5243e6415c3a213",
  "name" : "Then results of related cars with 'Mersedes A' mark are displayed",
  "time" : {
    "start" : 1609832859778,
    "stop" : 1609832859801,
    "duration" : 23
  },
  "status" : "passed",
  "severity" : "normal"
}, {
  "uid" : "e080b2fa11525bd2",
  "name" : "Given the browser is at Our Vehicles page",
  "time" : {
    "start" : 1609832829232,
    "stop" : 1609832836115,
    "duration" : 6883
  },
  "status" : "passed",
  "severity" : "normal"
}, {
  "uid" : "ccca5e16a2701538",
  "name" : "When the user search for 'No stress plan'",
  "time" : {
    "start" : 1609832845172,
    "stop" : 1609832848011,
    "duration" : 2839
  },
  "status" : "passed",
  "severity" : "normal"
}, {
  "uid" : "c698d94f576ea7b5",
  "name" : "Given the browser is at Our Vehicles page",
  "time" : {
    "start" : 1609832887965,
    "stop" : 1609832889717,
    "duration" : 1752
  },
  "status" : "passed",
  "severity" : "normal"
}, {
  "uid" : "3da68025b4cc0f29",
  "name" : "When the user search AVG value of Term - 36 months and Mileage",
  "time" : {
    "start" : 1609832884043,
    "stop" : 1609832887934,
    "duration" : 3891
  },
  "status" : "passed",
  "severity" : "normal"
}, {
  "uid" : "e7b109b86716a8f0",
  "name" : "Then no results of related cars with 'Audi' model are displayed",
  "time" : {
    "start" : 1609832911158,
    "stop" : 1609832911178,
    "duration" : 20
  },
  "status" : "passed",
  "severity" : "normal"
}, {
  "uid" : "ecbd57f9a70ae21d",
  "name" : "When the user search for 'Mersedes A'",
  "time" : {
    "start" : 1609832854869,
    "stop" : 1609832859778,
    "duration" : 4909
  },
  "status" : "passed",
  "severity" : "normal"
}, {
  "uid" : "fcb6cd8cc13b8fec",
  "name" : "Given the browser is at Our Vehicles page",
  "time" : {
    "start" : 1609832859807,
    "stop" : 1609832861522,
    "duration" : 1715
  },
  "status" : "passed",
  "severity" : "normal"
}, {
  "uid" : "7eca39015b1f7d60",
  "name" : "Given the browser is at Our Vehicles page",
  "time" : {
    "start" : 1609832911183,
    "stop" : 1609832912987,
    "duration" : 1804
  },
  "status" : "passed",
  "severity" : "normal"
}, {
  "uid" : "a5b511fb61f8fa72",
  "name" : "Hook",
  "time" : {
    "start" : 1609832917243,
    "stop" : 1609832917243,
    "duration" : 0
  },
  "status" : "passed",
  "severity" : "normal"
}, {
  "uid" : "c82eacdf1eae935f",
  "name" : "Given the browser is at Our Vehicles page",
  "time" : {
    "start" : 1609832871428,
    "stop" : 1609832873310,
    "duration" : 1882
  },
  "status" : "passed",
  "severity" : "normal"
}, {
  "uid" : "f24af4b6b2438dcb",
  "name" : "When the user search for 'Audi' by using 'Best deals' filter",
  "time" : {
    "start" : 1609832907719,
    "stop" : 1609832911158,
    "duration" : 3439
  },
  "status" : "passed",
  "severity" : "normal"
}, {
  "uid" : "28d4c35b681edda4",
  "name" : "When the user search for 'Configure yourself'",
  "time" : {
    "start" : 1609832849884,
    "stop" : 1609832853070,
    "duration" : 3186
  },
  "status" : "passed",
  "severity" : "normal"
}, {
  "uid" : "2be8edf46e9b4159",
  "name" : "Then results of related cars with AVG value of Term - 36 months are displayed",
  "time" : {
    "start" : 1609832887934,
    "stop" : 1609832887959,
    "duration" : 25
  },
  "status" : "passed",
  "severity" : "normal"
}, {
  "uid" : "be20cfeb5d2802e0",
  "name" : "Hook",
  "time" : {
    "start" : 1609832853098,
    "stop" : 1609832853098,
    "duration" : 0
  },
  "status" : "passed",
  "severity" : "normal"
}, {
  "uid" : "9294bc258100f0fa",
  "name" : "Given the browser is at Our Vehicles page",
  "time" : {
    "start" : 1609832893362,
    "stop" : 1609832896597,
    "duration" : 3235
  },
  "status" : "passed",
  "severity" : "normal"
}, {
  "uid" : "47313da1ec11b3ed",
  "name" : "Hook",
  "time" : {
    "start" : 1609832887959,
    "stop" : 1609832887959,
    "duration" : 0
  },
  "status" : "passed",
  "severity" : "normal"
}, {
  "uid" : "28de24074393e0df",
  "name" : "Hook",
  "time" : {
    "start" : 1609832842047,
    "stop" : 1609832842048,
    "duration" : 1
  },
  "status" : "passed",
  "severity" : "normal"
}, {
  "uid" : "797b1c3fb5731f4f",
  "name" : "Given the browser is at Our Vehicles page",
  "time" : {
    "start" : 1609832899143,
    "stop" : 1609832902657,
    "duration" : 3514
  },
  "status" : "passed",
  "severity" : "normal"
}, {
  "uid" : "16222d8cd8b937cf",
  "name" : "When the user search for 'Tesla' model by using 'Configure Yourself' filter",
  "time" : {
    "start" : 1609832912987,
    "stop" : 1609832917223,
    "duration" : 4236
  },
  "status" : "passed",
  "severity" : "normal"
}, {
  "uid" : "bbfd51db6576a882",
  "name" : "Then results of related cars with MAX price are displayed",
  "time" : {
    "start" : 1609832871394,
    "stop" : 1609832871418,
    "duration" : 24
  },
  "status" : "passed",
  "severity" : "normal"
}, {
  "uid" : "b0026b8f09093e19",
  "name" : "Hook",
  "time" : {
    "start" : 1609832848127,
    "stop" : 1609832848127,
    "duration" : 0
  },
  "status" : "passed",
  "severity" : "normal"
}, {
  "uid" : "188c57d693377caf",
  "name" : "Given the browser is at Our Vehicles page",
  "time" : {
    "start" : 1609832853104,
    "stop" : 1609832854869,
    "duration" : 1765
  },
  "status" : "passed",
  "severity" : "normal"
}, {
  "uid" : "6d09d2f006f72f71",
  "name" : "When the user search a MIN price of cars",
  "time" : {
    "start" : 1609832873310,
    "stop" : 1609832876437,
    "duration" : 3127
  },
  "status" : "passed",
  "severity" : "normal"
}, {
  "uid" : "35396dc55a17640d",
  "name" : "Given the browser is at Our Vehicles page",
  "time" : {
    "start" : 1609832876494,
    "stop" : 1609832878322,
    "duration" : 1828
  },
  "status" : "passed",
  "severity" : "normal"
} ]