{
  "reportName" : "Allure Report",
  "testRuns" : [ ],
  "statistic" : {
    "failed" : 0,
    "broken" : 0,
    "skipped" : 0,
    "passed" : 54,
    "unknown" : 0,
    "total" : 54
  },
  "time" : {
    "start" : 1609832829232,
    "stop" : 1609832917243,
    "duration" : 88011,
    "minDuration" : 0,
    "maxDuration" : 6883,
    "sumDuration" : 86107
  }
}