"Status","Start Time","Stop Time","Duration in ms","Parent Suite","Suite","Sub Suite","Test Class","Test Method","Name","Description"
"passed","Tue Jan 05 08:47:46 CET 2021","Tue Jan 05 08:47:46 CET 2021","27","","Cars filtering: Filter by selecting any car from 'Other Makes' checkbox of Make&Model filter","","Cars filtering: Filter by selecting any car from 'Other Makes' checkbox of Make&Model filter","Then results of related cars with a 'EVOQUE Land Rover' mark are displayed","Then results of related cars with a 'EVOQUE Land Rover' mark are displayed",""
"passed","Tue Jan 05 08:48:02 CET 2021","Tue Jan 05 08:48:02 CET 2021","23","","Cars filtering: Filter by selecting MIN value of Term(24 months) and Mileage filter","","Cars filtering: Filter by selecting MIN value of Term(24 months) and Mileage filter","Then results of related cars with MIN value of Term - 24 months are displayed","Then results of related cars with MIN value of Term - 24 months are displayed",""
"passed","Tue Jan 05 08:48:19 CET 2021","Tue Jan 05 08:48:19 CET 2021","0","","Cars filtering: Filter by selecting MAX value of Term(60 months) and Mileage filter","","Cars filtering: Filter by selecting MAX value of Term(60 months) and Mileage filter","Hook","Hook",""
"passed","Tue Jan 05 08:47:56 CET 2021","Tue Jan 05 08:47:56 CET 2021","48","","Cars filtering: Filter by selecting a MIN price from MonthlyPrice filters","","Cars filtering: Filter by selecting a MIN price from MonthlyPrice filters","Then results of related cars with MIN price are displayed","Then results of related cars with MIN price are displayed",""
"passed","Tue Jan 05 08:48:37 CET 2021","Tue Jan 05 08:48:37 CET 2021","20","","Cars filtering: Filter by selecting any value from unavailable checkbox","","Cars filtering: Filter by selecting any value from unavailable checkbox","Then no results of related cars with 'Hybrid' fuel type are displayed","Then no results of related cars with 'Hybrid' fuel type are displayed",""
"passed","Tue Jan 05 08:48:13 CET 2021","Tue Jan 05 08:48:13 CET 2021","23","","Cars filtering: Filter by selecting AVG value of Term(48 months) and Mileage filter","","Cars filtering: Filter by selecting AVG value of Term(48 months) and Mileage filter","Then results of related cars with AVG value of Term - 48 months are displayed","Then results of related cars with AVG value of Term - 48 months are displayed",""
"passed","Tue Jan 05 08:47:28 CET 2021","Tue Jan 05 08:47:28 CET 2021","116","","Cars filtering: Filter by selecting 'No stress plan' checkbox from Popular filters","","Cars filtering: Filter by selecting 'No stress plan' checkbox from Popular filters","Then results of related cars with a 'No stress plan' are displayed","Then results of related cars with a 'No stress plan' are displayed",""
"passed","Tue Jan 05 08:47:56 CET 2021","Tue Jan 05 08:47:56 CET 2021","0","","Cars filtering: Filter by selecting a MIN price from MonthlyPrice filters","","Cars filtering: Filter by selecting a MIN price from MonthlyPrice filters","Hook","Hook",""
"passed","Tue Jan 05 08:47:33 CET 2021","Tue Jan 05 08:47:33 CET 2021","27","","Cars filtering: Filter by selecting 'Configure yourself' checkbox from Popular filters","","Cars filtering: Filter by selecting 'Configure yourself' checkbox from Popular filters","Then results of related cars sums are displayed","Then results of related cars sums are displayed",""
"passed","Tue Jan 05 08:47:46 CET 2021","Tue Jan 05 08:47:48 CET 2021","1773","","Cars filtering: Filter by selecting a MAX price from MonthlyPrice filters","","Cars filtering: Filter by selecting a MAX price from MonthlyPrice filters","Given the browser is at Our Vehicles page","Given the browser is at Our Vehicles page",""
"passed","Tue Jan 05 08:48:16 CET 2021","Tue Jan 05 08:48:19 CET 2021","2515","","Cars filtering: Filter by selecting MAX value of Term(60 months) and Mileage filter","","Cars filtering: Filter by selecting MAX value of Term(60 months) and Mileage filter","When the user search MAX value of Term - 60 months and Mileage","When the user search MAX value of Term - 60 months and Mileage",""
"passed","Tue Jan 05 08:48:25 CET 2021","Tue Jan 05 08:48:25 CET 2021","0","","Cars filtering: Filter by selecting any type from 'Fuel type' filter","","Cars filtering: Filter by selecting any type from 'Fuel type' filter","Hook","Hook",""
"passed","Tue Jan 05 08:47:46 CET 2021","Tue Jan 05 08:47:46 CET 2021","1","","Cars filtering: Filter by selecting any car from 'Other Makes' checkbox of Make&Model filter","","Cars filtering: Filter by selecting any car from 'Other Makes' checkbox of Make&Model filter","Hook","Hook",""
"passed","Tue Jan 05 08:48:09 CET 2021","Tue Jan 05 08:48:13 CET 2021","3613","","Cars filtering: Filter by selecting AVG value of Term(48 months) and Mileage filter","","Cars filtering: Filter by selecting AVG value of Term(48 months) and Mileage filter","When the user search AVG value of Term - 48 months and Mileage","When the user search AVG value of Term - 48 months and Mileage",""
"passed","Tue Jan 05 08:47:28 CET 2021","Tue Jan 05 08:47:29 CET 2021","1749","","Cars filtering: Filter by selecting 'Configure yourself' checkbox from Popular filters","","Cars filtering: Filter by selecting 'Configure yourself' checkbox from Popular filters","Given the browser is at Our Vehicles page","Given the browser is at Our Vehicles page",""
"passed","Tue Jan 05 08:47:58 CET 2021","Tue Jan 05 08:48:02 CET 2021","3874","","Cars filtering: Filter by selecting MIN value of Term(24 months) and Mileage filter","","Cars filtering: Filter by selecting MIN value of Term(24 months) and Mileage filter","When the user search MIN value of Term and Mileage","When the user search MIN value of Term and Mileage",""
"passed","Tue Jan 05 08:47:16 CET 2021","Tue Jan 05 08:47:21 CET 2021","5760","","Cars filtering: Filter by selecting 'Best Deals' checkbox from Popular filters","","Cars filtering: Filter by selecting 'Best Deals' checkbox from Popular filters","When the user search for 'Best Deals'","When the user search for 'Best Deals'",""
"passed","Tue Jan 05 08:48:22 CET 2021","Tue Jan 05 08:48:25 CET 2021","3127","","Cars filtering: Filter by selecting any type from 'Fuel type' filter","","Cars filtering: Filter by selecting any type from 'Fuel type' filter","When the user search for 'Electric'","When the user search for 'Electric'",""
"passed","Tue Jan 05 08:48:02 CET 2021","Tue Jan 05 08:48:02 CET 2021","0","","Cars filtering: Filter by selecting MIN value of Term(24 months) and Mileage filter","","Cars filtering: Filter by selecting MIN value of Term(24 months) and Mileage filter","Hook","Hook",""
"passed","Tue Jan 05 08:47:21 CET 2021","Tue Jan 05 08:47:22 CET 2021","172","","Cars filtering: Filter by selecting 'Best Deals' checkbox from Popular filters","","Cars filtering: Filter by selecting 'Best Deals' checkbox from Popular filters","Then results of related cars with 'Best Deals' mark are displayed","Then results of related cars with 'Best Deals' mark are displayed",""
"passed","Tue Jan 05 08:48:25 CET 2021","Tue Jan 05 08:48:25 CET 2021","123","","Cars filtering: Filter by selecting any type from 'Fuel type' filter","","Cars filtering: Filter by selecting any type from 'Fuel type' filter","Then results of related cars with 'Electric' fuel type are displayed","Then results of related cars with 'Electric' fuel type are displayed",""
"passed","Tue Jan 05 08:47:51 CET 2021","Tue Jan 05 08:47:51 CET 2021","0","","Cars filtering: Filter by selecting a MAX price from MonthlyPrice filters","","Cars filtering: Filter by selecting a MAX price from MonthlyPrice filters","Hook","Hook",""
"passed","Tue Jan 05 08:48:19 CET 2021","Tue Jan 05 08:48:19 CET 2021","26","","Cars filtering: Filter by selecting MAX value of Term(60 months) and Mileage filter","","Cars filtering: Filter by selecting MAX value of Term(60 months) and Mileage filter","Then results of related cars with MAX value of Term - 60 months are displayed","Then results of related cars with MAX value of Term - 60 months are displayed",""
"passed","Tue Jan 05 08:47:39 CET 2021","Tue Jan 05 08:47:39 CET 2021","0","","Cars filtering: Filter by selecting any car from 'Popular Makes' checkbox of Make&Model filter","","Cars filtering: Filter by selecting any car from 'Popular Makes' checkbox of Make&Model filter","Hook","Hook",""
"passed","Tue Jan 05 08:48:13 CET 2021","Tue Jan 05 08:48:13 CET 2021","0","","Cars filtering: Filter by selecting AVG value of Term(48 months) and Mileage filter","","Cars filtering: Filter by selecting AVG value of Term(48 months) and Mileage filter","Hook","Hook",""
"passed","Tue Jan 05 08:47:41 CET 2021","Tue Jan 05 08:47:46 CET 2021","4777","","Cars filtering: Filter by selecting any car from 'Other Makes' checkbox of Make&Model filter","","Cars filtering: Filter by selecting any car from 'Other Makes' checkbox of Make&Model filter","When the user search for 'EVOQUE Land Rover'","When the user search for 'EVOQUE Land Rover'",""
"passed","Tue Jan 05 08:48:02 CET 2021","Tue Jan 05 08:48:04 CET 2021","1818","","Cars filtering: Filter by selecting AVG value of Term(36 months) and Mileage filter","","Cars filtering: Filter by selecting AVG value of Term(36 months) and Mileage filter","Given the browser is at Our Vehicles page","Given the browser is at Our Vehicles page",""
"passed","Tue Jan 05 08:47:48 CET 2021","Tue Jan 05 08:47:51 CET 2021","3288","","Cars filtering: Filter by selecting a MAX price from MonthlyPrice filters","","Cars filtering: Filter by selecting a MAX price from MonthlyPrice filters","When the user search a MAX price of cars","When the user search a MAX price of cars",""
"passed","Tue Jan 05 08:47:22 CET 2021","Tue Jan 05 08:47:25 CET 2021","3109","","Cars filtering: Filter by selecting 'No stress plan' checkbox from Popular filters","","Cars filtering: Filter by selecting 'No stress plan' checkbox from Popular filters","Given the browser is at Our Vehicles page","Given the browser is at Our Vehicles page",""
"passed","Tue Jan 05 08:47:39 CET 2021","Tue Jan 05 08:47:39 CET 2021","23","","Cars filtering: Filter by selecting any car from 'Popular Makes' checkbox of Make&Model filter","","Cars filtering: Filter by selecting any car from 'Popular Makes' checkbox of Make&Model filter","Then results of related cars with 'Mersedes A' mark are displayed","Then results of related cars with 'Mersedes A' mark are displayed",""
"passed","Tue Jan 05 08:47:09 CET 2021","Tue Jan 05 08:47:16 CET 2021","6883","","Cars filtering: Filter by selecting 'Best Deals' checkbox from Popular filters","","Cars filtering: Filter by selecting 'Best Deals' checkbox from Popular filters","Given the browser is at Our Vehicles page","Given the browser is at Our Vehicles page",""
"passed","Tue Jan 05 08:47:25 CET 2021","Tue Jan 05 08:47:28 CET 2021","2839","","Cars filtering: Filter by selecting 'No stress plan' checkbox from Popular filters","","Cars filtering: Filter by selecting 'No stress plan' checkbox from Popular filters","When the user search for 'No stress plan'","When the user search for 'No stress plan'",""
"passed","Tue Jan 05 08:48:07 CET 2021","Tue Jan 05 08:48:09 CET 2021","1752","","Cars filtering: Filter by selecting AVG value of Term(48 months) and Mileage filter","","Cars filtering: Filter by selecting AVG value of Term(48 months) and Mileage filter","Given the browser is at Our Vehicles page","Given the browser is at Our Vehicles page",""
"passed","Tue Jan 05 08:48:04 CET 2021","Tue Jan 05 08:48:07 CET 2021","3891","","Cars filtering: Filter by selecting AVG value of Term(36 months) and Mileage filter","","Cars filtering: Filter by selecting AVG value of Term(36 months) and Mileage filter","When the user search AVG value of Term - 36 months and Mileage","When the user search AVG value of Term - 36 months and Mileage",""
"passed","Tue Jan 05 08:48:31 CET 2021","Tue Jan 05 08:48:31 CET 2021","20","","Cars filtering: Filter by selecting any value from unavailable checkbox","","Cars filtering: Filter by selecting any value from unavailable checkbox","Then no results of related cars with 'Audi' model are displayed","Then no results of related cars with 'Audi' model are displayed",""
"passed","Tue Jan 05 08:47:34 CET 2021","Tue Jan 05 08:47:39 CET 2021","4909","","Cars filtering: Filter by selecting any car from 'Popular Makes' checkbox of Make&Model filter","","Cars filtering: Filter by selecting any car from 'Popular Makes' checkbox of Make&Model filter","When the user search for 'Mersedes A'","When the user search for 'Mersedes A'",""
"passed","Tue Jan 05 08:47:39 CET 2021","Tue Jan 05 08:47:41 CET 2021","1715","","Cars filtering: Filter by selecting any car from 'Other Makes' checkbox of Make&Model filter","","Cars filtering: Filter by selecting any car from 'Other Makes' checkbox of Make&Model filter","Given the browser is at Our Vehicles page","Given the browser is at Our Vehicles page",""
"passed","Tue Jan 05 08:48:31 CET 2021","Tue Jan 05 08:48:32 CET 2021","1804","","Cars filtering: Filter by selecting any value from unavailable checkbox","","Cars filtering: Filter by selecting any value from unavailable checkbox","Given the browser is at Our Vehicles page","Given the browser is at Our Vehicles page",""
"passed","Tue Jan 05 08:48:37 CET 2021","Tue Jan 05 08:48:37 CET 2021","0","","Cars filtering: Filter by selecting any value from unavailable checkbox","","Cars filtering: Filter by selecting any value from unavailable checkbox","Hook","Hook",""
"passed","Tue Jan 05 08:47:51 CET 2021","Tue Jan 05 08:47:53 CET 2021","1882","","Cars filtering: Filter by selecting a MIN price from MonthlyPrice filters","","Cars filtering: Filter by selecting a MIN price from MonthlyPrice filters","Given the browser is at Our Vehicles page","Given the browser is at Our Vehicles page",""
"passed","Tue Jan 05 08:48:27 CET 2021","Tue Jan 05 08:48:31 CET 2021","3439","","Cars filtering: Filter by selecting any value from unavailable checkbox","","Cars filtering: Filter by selecting any value from unavailable checkbox","When the user search for 'Audi' by using 'Best deals' filter","When the user search for 'Audi' by using 'Best deals' filter",""
"passed","Tue Jan 05 08:47:29 CET 2021","Tue Jan 05 08:47:33 CET 2021","3186","","Cars filtering: Filter by selecting 'Configure yourself' checkbox from Popular filters","","Cars filtering: Filter by selecting 'Configure yourself' checkbox from Popular filters","When the user search for 'Configure yourself'","When the user search for 'Configure yourself'",""
"passed","Tue Jan 05 08:48:07 CET 2021","Tue Jan 05 08:48:07 CET 2021","25","","Cars filtering: Filter by selecting AVG value of Term(36 months) and Mileage filter","","Cars filtering: Filter by selecting AVG value of Term(36 months) and Mileage filter","Then results of related cars with AVG value of Term - 36 months are displayed","Then results of related cars with AVG value of Term - 36 months are displayed",""
"passed","Tue Jan 05 08:47:33 CET 2021","Tue Jan 05 08:47:33 CET 2021","0","","Cars filtering: Filter by selecting 'Configure yourself' checkbox from Popular filters","","Cars filtering: Filter by selecting 'Configure yourself' checkbox from Popular filters","Hook","Hook",""
"passed","Tue Jan 05 08:48:13 CET 2021","Tue Jan 05 08:48:16 CET 2021","3235","","Cars filtering: Filter by selecting MAX value of Term(60 months) and Mileage filter","","Cars filtering: Filter by selecting MAX value of Term(60 months) and Mileage filter","Given the browser is at Our Vehicles page","Given the browser is at Our Vehicles page",""
"passed","Tue Jan 05 08:48:07 CET 2021","Tue Jan 05 08:48:07 CET 2021","0","","Cars filtering: Filter by selecting AVG value of Term(36 months) and Mileage filter","","Cars filtering: Filter by selecting AVG value of Term(36 months) and Mileage filter","Hook","Hook",""
"passed","Tue Jan 05 08:47:22 CET 2021","Tue Jan 05 08:47:22 CET 2021","1","","Cars filtering: Filter by selecting 'Best Deals' checkbox from Popular filters","","Cars filtering: Filter by selecting 'Best Deals' checkbox from Popular filters","Hook","Hook",""
"passed","Tue Jan 05 08:48:19 CET 2021","Tue Jan 05 08:48:22 CET 2021","3514","","Cars filtering: Filter by selecting any type from 'Fuel type' filter","","Cars filtering: Filter by selecting any type from 'Fuel type' filter","Given the browser is at Our Vehicles page","Given the browser is at Our Vehicles page",""
"passed","Tue Jan 05 08:48:32 CET 2021","Tue Jan 05 08:48:37 CET 2021","4236","","Cars filtering: Filter by selecting any value from unavailable checkbox","","Cars filtering: Filter by selecting any value from unavailable checkbox","When the user search for 'Tesla' model by using 'Configure Yourself' filter","When the user search for 'Tesla' model by using 'Configure Yourself' filter",""
"passed","Tue Jan 05 08:47:51 CET 2021","Tue Jan 05 08:47:51 CET 2021","24","","Cars filtering: Filter by selecting a MAX price from MonthlyPrice filters","","Cars filtering: Filter by selecting a MAX price from MonthlyPrice filters","Then results of related cars with MAX price are displayed","Then results of related cars with MAX price are displayed",""
"passed","Tue Jan 05 08:47:28 CET 2021","Tue Jan 05 08:47:28 CET 2021","0","","Cars filtering: Filter by selecting 'No stress plan' checkbox from Popular filters","","Cars filtering: Filter by selecting 'No stress plan' checkbox from Popular filters","Hook","Hook",""
"passed","Tue Jan 05 08:47:33 CET 2021","Tue Jan 05 08:47:34 CET 2021","1765","","Cars filtering: Filter by selecting any car from 'Popular Makes' checkbox of Make&Model filter","","Cars filtering: Filter by selecting any car from 'Popular Makes' checkbox of Make&Model filter","Given the browser is at Our Vehicles page","Given the browser is at Our Vehicles page",""
"passed","Tue Jan 05 08:47:53 CET 2021","Tue Jan 05 08:47:56 CET 2021","3127","","Cars filtering: Filter by selecting a MIN price from MonthlyPrice filters","","Cars filtering: Filter by selecting a MIN price from MonthlyPrice filters","When the user search a MIN price of cars","When the user search a MIN price of cars",""
"passed","Tue Jan 05 08:47:56 CET 2021","Tue Jan 05 08:47:58 CET 2021","1828","","Cars filtering: Filter by selecting MIN value of Term(24 months) and Mileage filter","","Cars filtering: Filter by selecting MIN value of Term(24 months) and Mileage filter","Given the browser is at Our Vehicles page","Given the browser is at Our Vehicles page",""
